…
``` r
graph.bc.emm.data.pairs.compl$From <- factor(graph.bc.emm.data.pairs.compl$From, levels=rev(unique(graph.bc.emm.data.pairs.compl$From)))
#graph.bc.emm.data.pairs.compl$To <- factor(graph.bc.emm.data.pairs.compl$To, levels=cond.lev)
#graph.bc.emm.data.pairs.compl$From <- factor(graph.bc.emm.data.pairs.compl$From, levels=rev(cond.lev))


#graph.numlinks.emm.cond.pairs.compl %>% arrange(desc(estimate))
graph.bc.emm.data.pairs.compl %>% arrange(estimate)
```

    ## # A tibble: 30 x 11
    ##    contrast From  To    estimate     SE    df z.ratio    p.value asymp.LCL
    ##    <fct>    <fct> <chr>    <dbl>  <dbl> <dbl>   <dbl>      <dbl>     <dbl>
    ##  1 1 - 9    1     9       -1.03  0.0921   Inf  -11.2    1.47e   -1.29  
    ##  2 1 - 7    1     7       -1.02  0.0919   Inf  -11.1    2.66e   -1.28  
    ##  3 1 - 3    1     3       -0.977 0.0928   Inf  -10.5    5.86e   -1.24  
    ##  4 1 - 8    1     8       -0.866 0.0934   Inf  - 9.27   6.38e   -1.13  
    ##  5 1 - 5    1     5       -0.713 0.0946   Inf  - 7.53   7.72e   -0.982 
    ##  6 5 - 9    5     9       -0.319 0.0812   Inf  - 3.93   1.21e    -0.550 
    ##  7 5 - 7    5     7       -0.306 0.0813   Inf  - 3.76   2.32e    -0.538 
    ##  8 3 - 5    5     3       -0.264 0.0799   Inf  - 3.30   1.23e    -0.0362
    ##  9 8 - 9    8     9       -0.165 0.0795   Inf  - 2.08   2.99e    -0.392 
    ## 10 5 - 8    5     8       -0.154 0.0818   Inf  - 1.88   4.17e    -0.387 
    ## # ... with 20 more rows, and 2 more variables: asymp.UCL <dbl>,
    ## #   sig.levels <ord>
…
``` r
graph.clickhd.emm.data.pairs.compl$From <- factor(graph.clickhd.emm.data.pairs.compl$From, levels=rev(unique(graph.clickhd.emm.data.pairs.compl$From)))
#graph.bc.emm.data.pairs.compl$To <- factor(graph.bc.emm.data.pairs.compl$To, levels=cond.lev)
#graph.bc.emm.data.pairs.compl$From <- factor(graph.bc.emm.data.pairs.compl$From, levels=rev(cond.lev))


#graph.numlinks.emm.cond.pairs.compl %>% arrange(desc(estimate))
graph.clickhd.emm.data.pairs.compl %>% arrange(estimate)
```

    ## # A tibble: 30 x 11
    ##    contrast From  To    estimate     SE    df z.ratio    p.value asymp.LCL
    ##    <fct>    <fct> <chr>    <dbl>  <dbl> <dbl>   <dbl>      <dbl>     <dbl>
    ##  1 8 - 9    8     9       -0.936 0.0893   Inf  -10.5    5.28e    -1.19 
    ##  2 3 - 8    8     3       -0.898 0.0894   Inf  -10.1    6.82e    -0.644
    ##  3 5 - 9    5     9       -0.889 0.0869   Inf  -10.2    5.05e    -1.14 
    ##  4 3 - 5    5     3       -0.852 0.0868   Inf  - 9.82   6.14e    -0.605
    ##  5 1 - 8    8     1       -0.619 0.0921   Inf  - 6.72   2.64e    -0.357
    ##  6 1 - 5    5     1       -0.572 0.0895   Inf  - 6.39   2.42e     -0.317
    ##  7 7 - 8    8     7       -0.540 0.0947   Inf  - 5.70   1.77e     -0.270
    ##  8 5 - 7    5     7       -0.493 0.0924   Inf  - 5.34   1.40e     -0.757
    ##  9 7 - 9    7     9       -0.396 0.0777   Inf  - 5.10   5.09e     -0.618
    ## 10 3 - 7    7     3       -0.358 0.0781   Inf  - 4.59   6.52e     -0.136
    ## # ... with 20 more rows, and 2 more variables: asymp.UCL <dbl>,
    ## #   sig.levels <ord>
…
graph.numclust.emm.data.pairs.compl <- bind_rows(graph.numclust.emm.data.pairs, data.copy)


#cond.lev <- c("Ctrl","Phr","Col","Siz")

#graph.numlinks.emm.data.pairs.compl$From <- factor(graph.numlinks.emm.data.pairs.compl$From, levels=cond.lev)
#graph.numlinks.emm.data.pairs.compl$To <- factor(graph.numlinks.emm.data.pairs.compl$To, levels=cond.lev)

graph.numclust.emm.data.pairs.compl$From <- factor(graph.numclust.emm.data.pairs.compl$From, levels=rev(unique(graph.numclust.emm.data.pairs.compl$From)))

#graph.numlinks.emm.cond.pairs.compl %>% arrange(desc(estimate))
graph.numclust.emm.data.pairs.compl %>% arrange(estimate)
```

    ## # A tibble: 30 x 11
    ##    contrast From  To    estimate      SE    df t.ratio    p.value lower.CL
    ##    <fct>    <fct> <chr>    <dbl>   <dbl> <dbl>   <dbl>      <dbl>    <dbl>
    ##  1 1 - 5    1     5      -0.0403 0.00466   946   -8.65   0        -5.37e
    ##  2 5 - 7    7     5      -0.0380 0.00470   938   -8.09   0        -2.46e
    ##  3 3 - 5    3     5      -0.0345 0.00467   929   -7.39   4.92e -4.78e
    ##  4 1 - 9    1     9      -0.0320 0.00463   936   -6.92   1.24e -4.52e
    ##  5 7 - 9    7     9      -0.0297 0.00472   956   -6.29   7.13e  -4.32e
    ##  6 3 - 9    3     9      -0.0262 0.00470   974   -5.57   4.84e  -3.96e
    ##  7 1 - 8    1     8      -0.0259 0.00472   956   -5.49   7.50e  -3.94e
    ##  8 7 - 8    7     8      -0.0236 0.00479   964   -4.92   1.48e  -3.73e
    ##  9 3 - 8    3     8      -0.0201 0.00472   936   -4.25   3.38e  -3.36e
    ## 10 5 - 8    8     5      -0.0144 0.00472   959   -3.06   2.78e  -9.50e
    ## # ... with 20 more rows, and 2 more variables: upper.CL <dbl>,
    ## #   sig.levels <ord>
…
``` r
ggsave(file.path(figureDir, "emmeanscolordatanumclustgraphics.pdf"), width=7, height=5)
```

``` r
graph.numclust.emm.conddata.pairs <- dplyr::as_data_frame(pairs(graph.numclust.emm.conddata)) 
graph.numclust.emm.conddata.pairs #%>% View()
```

    ## # A tibble: 30 x 7
    ##    contrast ConditionColor estimate      SE    df t.ratio      p.value
    ##  * <fct>    <fct>             <dbl>   <dbl> <dbl>   <dbl>        <dbl>
    ##  1 1 - 3    1-Color         0.00276 0.00807   967   0.342 0.999       
    ##  2 1 - 5    1-Color        -0.0222  0.00795   938  -2.79  0.0602      
    ##  3 1 - 7    1-Color         0.0111  0.00807   928   1.38  0.741       
    ##  4 1 - 8    1-Color        -0.0333  0.00813   955  -4.10  0.000642    
    ##  5 1 - 9    1-Color        -0.0475  0.00790   925  -6.01  0.0000000406
    ##  6 3 - 5    1-Color        -0.0249  0.00798   922  -3.12  0.0227      
    ##  7 3 - 7    1-Color         0.00835 0.00822   966   1.02  0.913       
    ##  8 3 - 8    1-Color        -0.0361  0.00816   929  -4.42  0.000161    
    ##  9 3 - 9    1-Color        -0.0502  0.00808   978  -6.21  0.0000000114
    ## 10 5 - 7    1-Color         0.0333  0.00807   924   4.12  0.000581    
    ## # ... with 20 more rows
…
graph.numclust.emm.conddata.pairs$contrast.cond <- factor(graph.numclust.emm.conddata.pairs$contrast.cond, levels=graph.numclust.emm.conddata.pairs %>% arrange(desc(estimate)) %>% dplyr::select(contrast.cond) %>% distinct() %>% unlist())

#graph.numnodes.emm.conddata.pairs %>% View()

graph.numclust.emm.conddata.pairs$contrast <- 
  factor(as.character(graph.numclust.emm.conddata.pairs$contrast), 
         levels=graph.numclust.emm.conddata.pairs %>% group_by(contrast) %>% summarise(avgEst = mean(estimate)) %>% arrange(desc(avgEst)) %>% dplyr::select(contrast) %>% distinct() %>% unlist())


graph.numclust.emm.conddata.pairs <- graph.numclust.emm.conddata.pairs %>% separate(contrast, c("From", "del", "To"), sep="[ ]", remove=FALSE) %>% dplyr::select(-del)

graph.numclust.emm.conddata.pairs %>% arrange(estimate)
```

    ## # A tibble: 30 x 13
    ##    contrast From  To    ConditionColor estimate      SE    df t.ratio
    ##    <fct>    <chr> <chr> <fct>             <dbl>   <dbl> <dbl>   <dbl>
    ##  1 7 - 9    7     9     1-Color         -0.0586 0.00812   958  - 7.21
    ##  2 1 - 5    1     5     2-Other         -0.0585 0.00479   959  -12.2 
    ##  3 3 - 9    3     9     1-Color         -0.0502 0.00808   978  - 6.21
    ##  4 1 - 9    1     9     1-Color         -0.0475 0.00790   925  - 6.01
    ##  5 7 - 8    7     8     1-Color         -0.0444 0.00832   970  - 5.34
    ##  6 3 - 5    3     5     2-Other         -0.0441 0.00476   932  - 9.26
    ##  7 3 - 8    3     8     1-Color         -0.0361 0.00816   929  - 4.42
    ##  8 1 - 8    1     8     1-Color         -0.0333 0.00813   955  - 4.10
    ##  9 5 - 9    5     9     1-Color         -0.0253 0.00796   957  - 3.18
    ## 10 3 - 5    3     5     1-Color         -0.0249 0.00798   922  - 3.12
    ## # ... with 20 more rows, and 5 more variables: p.value <dbl>,
    ## #   lower.CL <dbl>, upper.CL <dbl>, sig.levels <ord>, contrast.cond <fct>
…
#cond.lev <- c("Ctrl","Phr","Col","Siz")

#graph.numnodes.emm.conddata.pairs.compl$From <- factor(graph.numnodes.emm.conddata.pairs.compl$From, levels=cond.lev)
#graph.numnodes.emm.conddata.pairs.compl$To <- factor(graph.numnodes.emm.conddata.pairs.compl$To, levels=cond.lev)

graph.numclust.emm.conddata.pairs.compl$From <- factor(graph.numclust.emm.conddata.pairs.compl$From, levels=c(9,8,7,5,3,1))


#graph.numlinks.emm.conddata.pairs.compl %>% arrange(desc(estimate))
graph.numclust.emm.conddata.pairs.compl %>% arrange(estimate)
```

    ## # A tibble: 60 x 13
    ##    contrast From  To    ConditionColor estimate      SE    df t.ratio
    ##    <fct>    <fct> <chr> <fct>             <dbl>   <dbl> <dbl>   <dbl>
    ##  1 7 - 9    7     9     1-Color         -0.0586 0.00812   958  - 7.21
    ##  2 1 - 5    1     5     2-Other         -0.0585 0.00479   959  -12.2 
    ##  3 3 - 9    3     9     1-Color         -0.0502 0.00808   978  - 6.21
    ##  4 1 - 9    1     9     1-Color         -0.0475 0.00790   925  - 6.01
    ##  5 7 - 8    7     8     1-Color         -0.0444 0.00832   970  - 5.34
    ##  6 3 - 5    3     5     2-Other         -0.0441 0.00476   932  - 9.26
    ##  7 5 - 7    7     5     2-Other         -0.0427 0.00480   978  - 8.90
    ##  8 5 - 9    9     5     2-Other         -0.0419 0.00483   952  - 8.68
    ##  9 5 - 8    8     5     2-Other         -0.0400 0.00474   932  - 8.44
    ## 10 3 - 8    3     8     1-Color         -0.0361 0.00816   929  - 4.42
    ## # ... with 50 more rows, and 5 more variables: p.value <dbl>,
    ## #   lower.CL <dbl>, upper.CL <dbl>, sig.levels <ord>, contrast.cond <fct>
…
graph.numhd.emm.data.pairs.compl <- bind_rows(graph.numhd.emm.data.pairs, data.copy)


#cond.lev <- c("Ctrl","Phr","Col","Siz")

#graph.numlinks.emm.data.pairs.compl$From <- factor(graph.numlinks.emm.data.pairs.compl$From, levels=cond.lev)
#graph.numlinks.emm.data.pairs.compl$To <- factor(graph.numlinks.emm.data.pairs.compl$To, levels=cond.lev)

graph.numhd.emm.data.pairs.compl$From <- factor(graph.numhd.emm.data.pairs.compl$From, levels=rev(unique(graph.numhd.emm.data.pairs.compl$From)))

#graph.numhd.emm.data.pairs.compl %>% arrange(desc(estimate))
graph.numhd.emm.data.pairs.compl %>% arrange(estimate)
```

    ## # A tibble: 30 x 11
    ##    contrast From  To    estimate      SE    df t.ratio    p.value lower.CL
    ##    <fct>    <fct> <chr>    <dbl>   <dbl> <dbl>   <dbl>      <dbl>    <dbl>
    ##  1 1 - 5    1     5      -0.0447 0.00645  1101   -6.94   9.96e -0.0631 
    ##  2 5 - 8    8     5      -0.0366 0.00647  1084   -5.65   3.02e  -0.0181 
    ##  3 5 - 7    7     5      -0.0347 0.00698  1095   -4.97   1.15e  -0.0148 
    ##  4 1 - 9    1     9      -0.0277 0.00462  1065   -6.00   3.96e  -0.0409 
    ##  5 1 - 3    1     3      -0.0274 0.00447  1069   -6.13   1.88e  -0.0401 
    ##  6 8 - 9    8     9      -0.0196 0.00467  1047   -4.19   4.33e  -0.0329 
    ##  7 3 - 8    8     3      -0.0192 0.00451  1061   -4.26   3.24e  -0.00633
    ##  8 7 - 9    7     9      -0.0177 0.00534  1057   -3.31   1.23e  -0.0329 
    ##  9 3 - 5    3     5      -0.0174 0.00669  1097   -2.60   9.88e  -0.0365 
    ## 10 3 - 7    7     3      -0.0173 0.00520  1072   -3.33   1.15e  -0.00248
    ## # ... with 20 more rows, and 2 more variables: upper.CL <dbl>,
    ## #   sig.levels <ord>
…
``` r
#graph.numnodes.diffemm.conddata <- emmeans(graph.numnodes.lmer.int.3, pairwise ~ Dataset | Condition, nesting = NULL)

#graph.numnodes.diffemm.conddata

graph.numhd.emm.conddata.df <- dplyr::as_data_frame(graph.numhd.emm.conddata)

graph.numhd.emm.conddata.df #%>% View()
```

    ## # A tibble: 24 x 7
    ##    Dataset Condition  emmean      SE    df lower.CL upper.CL
    ##  * <fct>   <fct>       <dbl>   <dbl> <dbl>    <dbl>    <dbl>
    ##  1 1       Ctrl      0.0272  0.00587  1137  0.0157    0.0387
    ##  2 3       Ctrl      0.0650  0.00595  1137  0.0533    0.0766
    ##  3 5       Ctrl      0.128   0.00777  1134  0.113     0.144 
    ##  4 7       Ctrl      0.0713  0.00649  1136  0.0586    0.0841
    ##  5 8       Ctrl      0.0425  0.00587  1137  0.0310    0.0540
    ##  6 9       Ctrl      0.0598  0.00649  1136  0.0471    0.0726
    ##  7 1       Col       0.0362  0.00548  1137  0.0255    0.0470
    ##  8 3       Col       0.0734  0.00597  1136  0.0616    0.0851
    ##  9 5       Col       0.0237  0.00742  1134  0.00911   0.0382
    ## 10 7       Col       0.00280 0.00627  1136 -0.00951   0.0151
    ## # ... with 14 more rows
…
``` r
graph.numhd.emm.conddata.pairs <- dplyr::as_data_frame(pairs(graph.numhd.emm.conddata)) 
graph.numhd.emm.conddata.pairs #%>% View()
```

    ## # A tibble: 60 x 7
    ##    contrast Condition estimate      SE    df t.ratio       p.value
    ##  * <fct>    <fct>        <dbl>   <dbl> <dbl>   <dbl>         <dbl>
    ##  1 1 - 3    Ctrl      -0.0378  0.00825  1041 - 4.58  0.0000768    
    ##  2 1 - 5    Ctrl      -0.101   0.00961  1033 -10.5   0            
    ##  3 1 - 7    Ctrl      -0.0441  0.00864  1040 - 5.11  0.00000571   
    ##  4 1 - 8    Ctrl      -0.0153  0.00817  1003 - 1.88  0.417        
    ##  5 1 - 9    Ctrl      -0.0327  0.00865  1056 - 3.77  0.00234      
    ##  6 3 - 5    Ctrl      -0.0635  0.00968  1048 - 6.56  0.00000000123
    ##  7 3 - 7    Ctrl      -0.00637 0.00869  1043 - 0.733 0.978        
    ##  8 3 - 8    Ctrl       0.0224  0.00827  1054   2.71  0.0732       
    ##  9 3 - 9    Ctrl       0.00512 0.00865   980   0.592 0.992        
    ## 10 5 - 7    Ctrl       0.0572  0.0100   1065   5.70  0.000000230  
    ## # ... with 50 more rows
…
graph.numhd.emm.conddata.pairs$contrast.cond <- factor(graph.numhd.emm.conddata.pairs$contrast.cond, levels=graph.numhd.emm.conddata.pairs %>% arrange(desc(estimate)) %>% dplyr::select(contrast.cond) %>% distinct() %>% unlist())

#graph.numhd.emm.conddata.pairs %>% View()

graph.numhd.emm.conddata.pairs$contrast <- 
  factor(as.character(graph.numhd.emm.conddata.pairs$contrast), 
         levels=graph.numhd.emm.conddata.pairs %>% group_by(contrast) %>% summarise(avgEst = mean(estimate)) %>% arrange(desc(avgEst)) %>% dplyr::select(contrast) %>% distinct() %>% unlist())


graph.numhd.emm.conddata.pairs <- graph.numhd.emm.conddata.pairs %>% separate(contrast, c("From", "del", "To"), sep="[ ]", remove=FALSE) %>% dplyr::select(-del)

graph.numhd.emm.conddata.pairs %>% arrange(estimate)
```

    ## # A tibble: 60 x 13
    ##    contrast From  To    Condition estimate      SE    df t.ratio   p.value
    ##    <fct>    <chr> <chr> <fct>        <dbl>   <dbl> <dbl>   <dbl>     <dbl>
    ##  1 1 - 5    1     5     Ctrl       -0.101  0.00961  1033  -10.5   0       
    ##  2 7 - 9    7     9     Col        -0.0849 0.00848  1038  -10.0   1.67e
    ##  3 1 - 5    1     5     Siz        -0.0720 0.00930  1071  - 7.74  4.60e
    ##  4 1 - 7    1     7     Siz        -0.0673 0.00819  1009  - 8.21  5.10e
    ##  5 5 - 9    5     9     Col        -0.0640 0.00938  1072  - 6.82  2.22e
    ##  6 3 - 5    3     5     Ctrl       -0.0635 0.00968  1048  - 6.56  1.23e 
    ##  7 7 - 8    7     8     Col        -0.0617 0.00840  1044  - 7.34  6.64e
    ##  8 7 - 9    7     9     Phr        -0.0525 0.00849  1043  - 6.18  1.37e 
    ##  9 1 - 9    1     9     Col        -0.0514 0.00788  1015  - 6.53  1.55e 
    ## 10 1 - 7    1     7     Ctrl       -0.0441 0.00864  1040  - 5.11  5.71e 
    ## # ... with 50 more rows, and 4 more variables: lower.CL <dbl>,
    ## #   upper.CL <dbl>, sig.levels <ord>, contrast.cond <fct>
…
#cond.lev <- c("Ctrl","Phr","Col","Siz")

#graph.numnodes.emm.conddata.pairs.compl$From <- factor(graph.numnodes.emm.conddata.pairs.compl$From, levels=cond.lev)
#graph.numnodes.emm.conddata.pairs.compl$To <- factor(graph.numnodes.emm.conddata.pairs.compl$To, levels=cond.lev)

graph.numhd.emm.conddata.pairs.compl$From <- factor(graph.numhd.emm.conddata.pairs.compl$From, levels=c(9,8,7,5,3,1))


#graph.numlinks.emm.conddata.pairs.compl %>% arrange(desc(estimate))
graph.numhd.emm.conddata.pairs.compl %>% arrange(estimate)
```

    ## # A tibble: 120 x 13
    ##    contrast From  To    Condition estimate      SE    df t.ratio   p.value
    ##    <fct>    <fct> <chr> <fct>        <dbl>   <dbl> <dbl>   <dbl>     <dbl>
    ##  1 1 - 5    1     5     Ctrl       -0.101  0.00961  1033  -10.5   0       
    ##  2 5 - 8    8     5     Ctrl       -0.0860 0.00963  1054  - 8.92  0       
    ##  3 7 - 9    7     9     Col        -0.0849 0.00848  1038  -10.0   1.67e
    ##  4 1 - 5    1     5     Siz        -0.0720 0.00930  1071  - 7.74  4.60e
    ##  5 3 - 7    7     3     Col        -0.0706 0.00855  1048  - 8.26  1.15e
    ##  6 5 - 9    9     5     Ctrl       -0.0686 0.0101   1078  - 6.83  2.18e
    ##  7 1 - 7    1     7     Siz        -0.0673 0.00819  1009  - 8.21  5.10e
    ##  8 5 - 8    8     5     Siz        -0.0669 0.00928  1013  - 7.21  1.63e
    ##  9 5 - 9    5     9     Col        -0.0640 0.00938  1072  - 6.82  2.22e
    ## 10 3 - 5    3     5     Ctrl       -0.0635 0.00968  1048  - 6.56  1.23e 
    ## # ... with 110 more rows, and 4 more variables: lower.CL <dbl>,
    ## #   upper.CL <dbl>, sig.levels <ord>, contrast.cond <fct>
…
``` r
graph.numhd.emm.dataover.pairs <- dplyr::as_data_frame(pairs(graph.numhd.emm.dataover)) 
graph.numhd.emm.dataover.pairs #%>% View()
```

    ## # A tibble: 30 x 7
    ##    contrast Overestimated   estimate      SE    df t.ratio      p.value
    ##  * <fct>    <fct>              <dbl>   <dbl> <dbl>   <dbl>        <dbl>
    ##  1 1 - 3    1-Overestimated -0.0394  0.00776  1112  -5.08  0.00000664  
    ##  2 1 - 5    1-Overestimated -0.0375  0.0122   1119  -3.08  0.0256      
    ##  3 1 - 7    1-Overestimated  0.0159  0.00875  1105   1.81  0.457       
    ##  4 1 - 8    1-Overestimated  0.00680 0.00688  1111   0.989 0.922       
    ##  5 1 - 9    1-Overestimated -0.0218  0.00812  1108  -2.69  0.0779      
    ##  6 3 - 5    1-Overestimated  0.00190 0.0128   1121   0.149 1.000       
    ##  7 3 - 7    1-Overestimated  0.0553  0.00951  1106   5.81  0.000000122 
    ##  8 3 - 8    1-Overestimated  0.0462  0.00787  1111   5.87  0.0000000871
    ##  9 3 - 9    1-Overestimated  0.0176  0.00897  1083   1.96  0.368       
    ## 10 5 - 7    1-Overestimated  0.0534  0.0134   1110   3.99  0.000974    
    ## # ... with 20 more rows
…
