…
``` r
#plot(ref_grid(layout.numnodes.lmer.int.3), by="Condition") 
# try to figure this out? maybe only works on the interaction?
```

``` r
layout.numclust.emm.OS.pairs <- dplyr::as_data_frame(pairs(layout.numclust.emm.OS)) 
layout.numclust.emm.OS.pairs
```

    ## # A tibble: 190 x 6
    ##    contrast                      estimate     SE    df   t.ratio   p.value
    ##  * <fct>                            <dbl>  <dbl> <dbl>     <dbl>     <dbl>
    ##  1 Android 4.4.2 - Android 5.…   -5.24e⁻² 0.0503   731 -1.04      10.00e⁻¹
    ##  2 Android 4.4.2 - Android 6.…    7.04e⁻⁶ 0.0504   731  0.000140   1.00e⁺⁰
    ##  3 Android 4.4.2 - Android 7.0   -1.28e⁻³ 0.0391   676 -0.0328     1.00e⁺⁰
    ##  4 Android 4.4.2 - CrOS armv7…   -2.98e⁻¹ 0.0502   731 -5.94       8.31e⁻⁷
    ##  5 Android 4.4.2 - CrOS i686 …   -3.13e⁻² 0.0435   653 -0.720     10.00e⁻¹
    ##  6 Android 4.4.2 - CrOS x86_6…   -3.75e⁻² 0.0366   728 -1.03      10.00e⁻¹
    ##  7 Android 4.4.2 - CrOS x86_6…   -1.09e⁻² 0.0504   731 -0.216      1.00e⁺⁰
    ##  8 Android 4.4.2 - Fedora        -1.10e⁻² 0.0412   580 -0.267      1.00e⁺⁰
    ##  9 Android 4.4.2 - iPad          -3.49e⁻² 0.0398   697 -0.876     10.00e⁻¹
    ## 10 Android 4.4.2 - iPhone        -4.17e⁻² 0.0370   716 -1.13      10.00e⁻¹
    ## # ... with 180 more rows
…
layout.numclust.emm.OS.pairs$sig.levels <- factor(layout.numclust.emm.OS.pairs$sig.levels, levels=sig.level.names,ordered=TRUE)


layout.numclust.emm.OS.pairs$contrast <- factor(layout.numclust.emm.OS.pairs$contrast, levels=layout.numclust.emm.OS.pairs %>% arrange(desc(estimate)) %>% dplyr::select(contrast) %>% distinct() %>% unlist())

layout.numclust.emm.OS.pairs <- layout.numclust.emm.OS.pairs %>% separate(contrast, c("From", "del", "To"), sep="[ ]", remove=FALSE) %>% dplyr::select(-del)

layout.numclust.emm.OS.pairs %>% arrange(estimate)
```

    ## # A tibble: 190 x 11
    ##    contrast    From  To    estimate     SE    df t.ratio  p.value lower.CL
    ##    <fct>       <chr> <chr>    <dbl>  <dbl> <dbl>   <dbl>    <dbl>    <dbl>
    ##  1 Android 6.… Andr… -      -0.298  0.0504   731   -5.92  9.15e⁻⁷   -0.477
    ##  2 Android 4.… Andr… -      -0.298  0.0502   731   -5.94  8.31e⁻⁷   -0.477
    ##  3 Android 7.… Andr… -      -0.297  0.0391   676   -7.59  0         -0.436
    ##  4 Android 5.… Andr… -      -0.246  0.0503   731   -4.88  2.29e⁻⁴   -0.425
    ##  5 Android 4.… Andr… -      -0.0524 0.0503   731   -1.04 10.00e⁻¹   -0.231
    ##  6 Android 6.… Andr… -      -0.0417 0.0370   715   -1.13 10.00e⁻¹   -0.173
    ##  7 Android 4.… Andr… -      -0.0417 0.0370   716   -1.13 10.00e⁻¹   -0.173
    ##  8 Android 7.… Andr… -      -0.0404 0.0189   217   -2.14  8.34e⁻¹   -0.108
    ##  9 Android 6.… Andr… -      -0.0375 0.0367   727   -1.02 10.00e⁻¹   -0.168
    ## 10 Android 4.… Andr… -      -0.0375 0.0366   728   -1.03 10.00e⁻¹   -0.168
    ## # ... with 180 more rows, and 2 more variables: upper.CL <dbl>,
    ## #   sig.levels <ord>
…
layout.numclust.emm.OS.pairs.compl <- bind_rows(layout.numclust.emm.OS.pairs, OS.copy)


#cond.lev <- c("Ctrl","Phr","Col","Siz")

#layout.numlinks.emm.data.pairs.compl$From <- factor(layout.numlinks.emm.data.pairs.compl$From, levels=cond.lev)
#layout.numlinks.emm.data.pairs.compl$To <- factor(layout.numlinks.emm.data.pairs.compl$To, levels=cond.lev)

layout.numclust.emm.OS.pairs.compl$From <- factor(layout.numclust.emm.OS.pairs.compl$From, levels=rev(unique(layout.numclust.emm.OS.pairs.compl$From)))

#layout.numlinks.emm.cond.pairs.compl %>% arrange(desc(estimate))
layout.numclust.emm.OS.pairs.compl %>% arrange(estimate)
```

    ## # A tibble: 380 x 11
    ##    contrast     From  To    estimate     SE    df t.ratio p.value lower.CL
    ##    <fct>        <fct> <chr>    <dbl>  <dbl> <dbl>   <dbl>   <dbl>    <dbl>
    ##  1 Android 6.0… Andr… -       -0.298 0.0504   731   -5.92 9.15e⁻⁷   -0.477
    ##  2 Android 4.4… Andr… -       -0.298 0.0502   731   -5.94 8.31e⁻⁷   -0.477
    ##  3 Android 7.0… Andr… -       -0.297 0.0391   676   -7.59 0         -0.436
    ##  4 CrOS armv7l… 9592… CrOS    -0.287 0.0504   731   -5.70 3.24e⁻⁶   -0.108
    ##  5 CrOS armv7l… 9592… CrOS    -0.287 0.0412   580   -6.97 2.11e⁻⁹   -0.141
    ##  6 CrOS armv7l… 9592… CrOS    -0.281 0.0437   652   -6.44 4.28e⁻⁸   -0.126
    ##  7 CrOS armv7l… 9592… CrOS    -0.280 0.0412   704   -6.79 1.53e⁻⁹   -0.133
    ##  8 CrOS armv7l… 9592… CrOS    -0.278 0.0360   730   -7.71 0         -0.150
    ##  9 CrOS armv7l… 9592… CrOS    -0.275 0.0358   730   -7.69 0         -0.148
    ## 10 CrOS armv7l… 9592… CrOS    -0.275 0.0369   722   -7.45 0         -0.144
    ## # ... with 370 more rows, and 2 more variables: upper.CL <dbl>,
    ## #   sig.levels <ord>
…
#cond.lev <- c("Ctrl","Phr","Col","Siz")

#layout.numnodes.emm.conddata.pairs.compl$From <- factor(layout.numnodes.emm.conddata.pairs.compl$From, levels=cond.lev)
#layout.numnodes.emm.conddata.pairs.compl$To <- factor(layout.numnodes.emm.conddata.pairs.compl$To, levels=cond.lev)

layout.numhd.emm.conddata.pairs.compl$From <- factor(layout.numhd.emm.conddata.pairs.compl$From, levels=c(9,7,1))


#layout.numlinks.emm.conddata.pairs.compl %>% arrange(desc(estimate))
layout.numhd.emm.conddata.pairs.compl %>% arrange(estimate)
```

    ## # A tibble: 24 x 13
    ##    contrast From  To    Condition estimate      SE    df t.ratio   p.value
    ##    <fct>    <fct> <chr> <fct>        <dbl>   <dbl> <dbl>   <dbl>     <dbl>
    ##  1 1 - 7    1     7     Cir        -0.150  0.00845   669  -17.7   0       
    ##  2 1 - 9    1     9     Cir        -0.0894 0.00784   654  -11.4   0       
    ##  3 7 - 9    9     7     Cir        -0.0602 0.00815   588  - 7.39  5.00e⁻¹⁰
    ##  4 7 - 9    7     9     Fru        -0.0586 0.00720   606  - 8.14  4.05e⁻¹⁰
    ##  5 1 - 7    7     1     Fru        -0.0551 0.00719   626  - 7.66  1.43e⁻¹⁰
    ##  6 1 - 7    1     7     Ctrl       -0.0441 0.00760   646  - 5.79  3.19e⁻ ⁸
    ##  7 1 - 9    1     9     Ord        -0.0407 0.00689   629  - 5.90  1.76e⁻ ⁸
    ##  8 7 - 9    7     9     Ord        -0.0364 0.00715   595  - 5.10  1.38e⁻ ⁶
    ##  9 1 - 9    1     9     Ctrl       -0.0332 0.00758   650  - 4.38  4.15e⁻ ⁵
    ## 10 7 - 9    9     7     Ctrl       -0.0109 0.00778   603  - 1.40  3.43e⁻ ¹
    ## # ... with 14 more rows, and 4 more variables: lower.CL <dbl>,
    ## #   upper.CL <dbl>, sig.levels <ord>, contrast.cond <fct>
…
layout.numhd.emm.condunder.pairs.compl <- bind_rows(layout.numhd.emm.condunder.pairs, condunder.copy)


cond.lev <- c("Ctrl","Cir","Fru","Ord")

layout.numhd.emm.condunder.pairs.compl$From <- factor(layout.numhd.emm.condunder.pairs.compl$From, levels=rev(cond.lev))
layout.numhd.emm.condunder.pairs.compl$To <- factor(layout.numhd.emm.condunder.pairs.compl$To, levels=cond.lev)



#layout.numlinks.emm.conddata.pairs.compl %>% arrange(desc(estimate))
layout.numhd.emm.condunder.pairs.compl %>% arrange(estimate)
```

    ## # A tibble: 24 x 13
    ##    contrast   From  To    Underestimated estimate      SE    df t.ratio
    ##    <fct>      <fct> <fct> <fct>             <dbl>   <dbl> <dbl>   <dbl>
    ##  1 Cir - Ord  Ord   Cir   under           -0.0736 0.00495   469  -14.9 
    ##  2 Cir - Fru  Fru   Cir   under           -0.0690 0.00509   469  -13.6 
    ##  3 Ctrl - Cir Ctrl  Cir   under           -0.0596 0.00496   471  -12.0 
    ##  4 Cir - Ord  Ord   Cir   over            -0.0416 0.00933   746  - 4.46
    ##  5 Fru - Ord  Ord   Fru   over            -0.0275 0.00785   696  - 3.50
    ##  6 Ctrl - Cir Ctrl  Cir   over            -0.0244 0.00993   763  - 2.45
    ##  7 Ctrl - Ord Ord   Ctrl  over            -0.0172 0.00859   725  - 2.00
    ##  8 Cir - Fru  Fru   Cir   over            -0.0141 0.00948   762  - 1.49
    ##  9 Ctrl - Ord Ord   Ctrl  under           -0.0140 0.00489   458  - 2.87
    ## 10 Ctrl - Fru Ctrl  Fru   over            -0.0103 0.00867   748  - 1.18
    ## # ... with 14 more rows, and 5 more variables: p.value <dbl>,
    ## #   lower.CL <dbl>, upper.CL <dbl>, sig.levels <ord>, contrast.all <fct>
…
#cond.lev <- c("Ctrl","Phr","Col","Siz")

#layout.numnodes.emm.conddata.pairs.compl$From <- factor(layout.numnodes.emm.conddata.pairs.compl$From, levels=cond.lev)
#layout.numnodes.emm.conddata.pairs.compl$To <- factor(layout.numnodes.emm.conddata.pairs.compl$To, levels=cond.lev)

layout.numlinks.emm.conddata.pairs.compl$From <- factor(layout.numlinks.emm.conddata.pairs.compl$From, levels=c(9,7,1))


#layout.numlinks.emm.conddata.pairs.compl %>% arrange(desc(estimate))
layout.numlinks.emm.conddata.pairs.compl %>% arrange(estimate)
```

    ## # A tibble: 24 x 13
    ##    contrast From  To    Condition estimate      SE    df t.ratio   p.value
    ##    <fct>    <fct> <chr> <fct>        <dbl>   <dbl> <dbl>   <dbl>     <dbl>
    ##  1 1 - 9    1     9     Ord       -0.0739  0.00822   675   -9.00  0       
    ##  2 7 - 9    9     7     Cir       -0.0720  0.00894   578   -8.05  5.05e⁻¹⁰
    ##  3 1 - 9    1     9     Ctrl      -0.0694  0.00844   701   -8.22  0       
    ##  4 1 - 7    1     7     Cir       -0.0681  0.00972   743   -7.01  0       
    ##  5 7 - 9    7     9     Ord       -0.0650  0.00845   620   -7.70  2.42e⁻¹⁰
    ##  6 1 - 7    1     7     Ctrl      -0.0638  0.00857   621   -7.44  2.28e⁻¹⁰
    ##  7 7 - 9    7     9     Fru       -0.0474  0.00809   594   -5.86  2.33e⁻ ⁸
    ##  8 1 - 7    7     1     Fru       -0.0299  0.00744   626   -4.02  1.90e⁻ ⁴
    ##  9 1 - 9    1     9     Fru       -0.0175  0.00812   650   -2.15  8.03e⁻ ²
    ## 10 1 - 7    1     7     Ord       -0.00892 0.00747   621   -1.19  4.57e⁻ ¹
    ## # ... with 14 more rows, and 4 more variables: lower.CL <dbl>,
    ## #   upper.CL <dbl>, sig.levels <ord>, contrast.cond <fct>
…
layout.numlinks.emm.condunder.pairs.compl <- bind_rows(layout.numlinks.emm.condunder.pairs, condunder.copy)


cond.lev <- c("Ctrl","Cir","Fru","Ord")

layout.numlinks.emm.condunder.pairs.compl$From <- factor(layout.numlinks.emm.condunder.pairs.compl$From, levels=rev(cond.lev))
layout.numlinks.emm.condunder.pairs.compl$To <- factor(layout.numlinks.emm.condunder.pairs.compl$To, levels=cond.lev)



#layout.numlinks.emm.conddata.pairs.compl %>% arrange(desc(estimate))
layout.numlinks.emm.condunder.pairs.compl %>% arrange(estimate)
```

    ## # A tibble: 24 x 13
    ##    contrast   From  To    Underestimated estimate      SE    df t.ratio
    ##    <fct>      <fct> <fct> <fct>             <dbl>   <dbl> <dbl>   <dbl>
    ##  1 Cir - Ord  Cir   Ord   under          -0.0560  0.00512   488 -10.9  
    ##  2 Fru - Ord  Fru   Ord   under          -0.0332  0.00488   492 - 6.81 
    ##  3 Ctrl - Ord Ctrl  Ord   under          -0.0297  0.00473   473 - 6.27 
    ##  4 Ctrl - Cir Cir   Ctrl  under          -0.0263  0.00522   498 - 5.04 
    ##  5 Cir - Fru  Cir   Fru   under          -0.0228  0.00535   512 - 4.26 
    ##  6 Fru - Ord  Fru   Ord   over           -0.0225  0.00937   637 - 2.40 
    ##  7 Cir - Fru  Fru   Cir   over           -0.0145  0.00977   659 - 1.49 
    ##  8 Ctrl - Ord Ctrl  Ord   over           -0.0132  0.0105    742 - 1.26 
    ##  9 Ctrl - Fru Fru   Ctrl  over           -0.00925 0.00984   758 - 0.941
    ## 10 Cir - Ord  Cir   Ord   over           -0.00793 0.0104    658 - 0.763
    ## # ... with 14 more rows, and 5 more variables: p.value <dbl>,
    ## #   lower.CL <dbl>, upper.CL <dbl>, sig.levels <ord>, contrast.all <fct>
…
#cond.lev <- c("Ctrl","Phr","Col","Siz")

#layout.numnodes.emm.conddata.pairs.compl$From <- factor(layout.numnodes.emm.conddata.pairs.compl$From, levels=cond.lev)
#layout.numnodes.emm.conddata.pairs.compl$To <- factor(layout.numnodes.emm.conddata.pairs.compl$To, levels=cond.lev)

layout.numnodes.emm.conddata.pairs.compl$From <- factor(layout.numnodes.emm.conddata.pairs.compl$From, levels=c(9,7,1))


#layout.numnodes.emm.conddata.pairs.compl %>% arrange(desc(estimate))
layout.numnodes.emm.conddata.pairs.compl %>% arrange(estimate)
```

    ## # A tibble: 24 x 13
    ##    contrast From  To    Condition estimate      SE    df t.ratio   p.value
    ##    <fct>    <fct> <chr> <fct>        <dbl>   <dbl> <dbl>   <dbl>     <dbl>
    ##  1 1 - 7    1     7     Ctrl       -0.109  0.00690   572  -15.7   4.98e⁻¹⁰
    ##  2 1 - 9    1     9     Ord        -0.0796 0.00663   572  -12.0   4.98e⁻¹⁰
    ##  3 1 - 7    1     7     Ord        -0.0782 0.00661   558  -11.8   4.53e⁻¹⁰
    ##  4 1 - 9    1     9     Ctrl       -0.0722 0.00694   583  -10.4   5.05e⁻¹⁰
    ##  5 1 - 9    1     9     Fru        -0.0574 0.00700   581  - 8.21  5.06e⁻¹⁰
    ##  6 1 - 7    1     7     Fru        -0.0389 0.00699   580  - 5.56  1.24e⁻ ⁷
    ##  7 7 - 9    9     7     Ctrl       -0.0363 0.00695   547  - 5.23  7.29e⁻ ⁷
    ##  8 1 - 9    1     9     Cir        -0.0242 0.00714   612  - 3.40  2.09e⁻ ³
    ##  9 7 - 9    7     9     Fru        -0.0186 0.00690   574  - 2.69  1.99e⁻ ²
    ## 10 7 - 9    7     9     Cir        -0.0155 0.00710   514  - 2.19  7.38e⁻ ²
    ## # ... with 14 more rows, and 4 more variables: lower.CL <dbl>,
    ## #   upper.CL <dbl>, sig.levels <ord>, contrast.cond <fct>
…
