…
``` r
difflsm.task.df <- as_data_frame(difflsm.task$diffs.lsmeans.table)

difflsm.task.df
```

    ## # A tibble: 28 x 7
    ##    Estimate `Standard Error`      DF `t-value` `Lower CI` `Upper CI`
    ##  *    <dbl>            <dbl>   <dbl>     <dbl>      <dbl>      <dbl>
    ##  1  -2.5637           0.0229 12906.8   -111.81    -2.6086    -2.5187
    ##  2   0.3446           0.0290 12812.6     11.87     0.2878     0.4015
    ##  3  -0.4996           0.0289 12808.4    -17.29    -0.5563    -0.4430
    ##  4  -0.1455           0.0289 12809.0     -5.03    -0.2022    -0.0888
    ##  5  -0.4754           0.0289 12808.4    -16.43    -0.5320    -0.4187
    ##  6  -1.6409           0.0289 12808.9    -56.75    -1.6976    -1.5842
    ##  7  -0.9057           0.0289 12808.2    -31.33    -0.9623    -0.8490
    ##  8   2.9083           0.0231 12902.3    126.13     2.8631     2.9535
    ##  9   2.0640           0.0229 12908.4     90.11     2.0191     2.1089
    ## 10   2.4182           0.0229 12904.4    105.37     2.3732     2.4632
    ## # ... with 18 more rows, and 1 more variables: `p-value` <dbl>

``` r
difflsm.task.df <- difflsm.task.df %>% mutate(Pair=rownames(.)) %>% separate(Pair, c("del","Pair"), sep=5) %>% select(-del) %>% separate(Pair, c("From", "del", "To"), sep="[ ]", remove=FALSE) %>% select(-del)

difflsm.task.df$Pair <- factor(difflsm.task.df$Pair, levels=difflsm.task.df %>% arrange(desc(Estimate)) %>% select(Pair) %>% unlist())

difflsm.task.df %>% arrange(desc(Estimate))
```

    ## # A tibble: 28 x 10
    ##    Estimate `Standard Error`      DF `t-value` `Lower CI` `Upper CI`
    ##       <dbl>            <dbl>   <dbl>     <dbl>      <dbl>      <dbl>
    ##  1   2.9083           0.0231 12902.3    126.13     2.8631     2.9535
    ##  2   2.4182           0.0229 12904.4    105.37     2.3732     2.4632
    ##  3   2.0883           0.0229 12907.9     91.05     2.0434     2.1333
    ##  4   2.0640           0.0229 12908.4     90.11     2.0191     2.1089
    ##  5   1.6580           0.0229 12908.2     72.36     1.6131     1.7029
    ##  6   0.9228           0.0229 12908.6     40.26     0.8779     0.9677
    ##  7   0.7352           0.0289 12807.8     25.44     0.6786     0.7919
    ##  8   0.3541           0.0289 12809.3     12.25     0.2975     0.4108
    ##  9   0.3446           0.0290 12812.6     11.87     0.2878     0.4015
    ## 10   0.0243           0.0289 12808.1      0.84    -0.0324     0.0809
    ## # ... with 18 more rows, and 4 more variables: `p-value` <dbl>,
    ## #   Pair <fctr>, From <chr>, To <chr>
…
